…
## Built datafram about group interested data.

``` r
sum <- train %>%
  select(Survived, Pclass, Sex, Age, SibSp, Parch, Fare, Embarked) %>%
  mutate(
    Pclass = case_when(Pclass == "1" ~ "1st",
                       Pclass == "2" ~ "2nd",
                       Pclass == "3" ~ "3rd")
    )
print(sum)
```

    ## # A tibble: 891 × 8
    ##    Survived Pclass Sex      Age SibSp Parch  Fare Embarked
    ##       <dbl> <chr>  <chr>  <dbl> <dbl> <dbl> <dbl> <chr>   
    ##  1        0 3rd    male      22     1     0  7.25 S       
    ##  2        1 1st    female    38     1     0 71.3  C       
    ##  3        1 3rd    female    26     0     0  7.92 S       
    ##  4        1 1st    female    35     1     0 53.1  S       
    ##  5        0 3rd    male      35     0     0  8.05 S       
    ##  6        0 3rd    male      NA     0     0  8.46 Q       
    ##  7        0 1st    male      54     0     0 51.9  S       
    ##  8        0 3rd    male       2     3     1 21.1  S       
    ##  9        1 3rd    female    27     0     2 11.1  S       
    ## 10        1 2nd    female    14     1     0 30.1  C       
    ## # ℹ 881 more rows
…
